<?xml version="1.0" encoding="UTF-8"?>
<svg width="179px" height="144px" viewBox="0 0 179 144" version="1.1" xmlns="http://www.w3.org/2000/svg" xmlns:xlink="http://www.w3.org/1999/xlink">
    <!-- Generator: Sketch 53.2 (72643) - https://sketchapp.com -->
    <title>Group 2</title>
    <desc>Created with Sketch.</desc>
    <defs>
        <linearGradient x1="50%" y1="3.0121026%" x2="50%" y2="100%" id="linearGradient-1">
            <stop stop-color="#FFFFFF" stop-opacity="0.5" offset="0%"></stop>
            <stop stop-color="#FFFFFF" offset="100%"></stop>
        </linearGradient>
        <linearGradient x1="50%" y1="3.0121026%" x2="50%" y2="100%" id="linearGradient-2">
            <stop stop-color="#FFFFFF" stop-opacity="0.5" offset="0%"></stop>
            <stop stop-color="#FFFFFF" offset="100%"></stop>
        </linearGradient>
        <linearGradient x1="50%" y1="3.0121026%" x2="50%" y2="100%" id="linearGradient-3">
            <stop stop-color="#FFFFFF" stop-opacity="0.5" offset="0%"></stop>
            <stop stop-color="#FFFFFF" offset="100%"></stop>
        </linearGradient>
        <linearGradient x1="-1.11022302e-14%" y1="50%" x2="100%" y2="50%" id="linearGradient-4">
            <stop stop-color="#EEEEEE" offset="0%"></stop>
            <stop stop-color="#D8D8D8" offset="100%"></stop>
        </linearGradient>
        <linearGradient x1="-1.11022302e-14%" y1="50%" x2="100%" y2="50%" id="linearGradient-5">
            <stop stop-color="#BDBCBC" offset="0%"></stop>
            <stop stop-color="#D8D8D8" offset="100%"></stop>
        </linearGradient>
        <linearGradient x1="50%" y1="0%" x2="50%" y2="100%" id="linearGradient-6">
            <stop stop-color="#FBD249" offset="0%"></stop>
            <stop stop-color="#F5A623" offset="100%"></stop>
        </linearGradient>
        <linearGradient x1="-1.11022302e-14%" y1="50%" x2="100%" y2="50%" id="linearGradient-7">
            <stop stop-color="#98CAF1" offset="0%"></stop>
            <stop stop-color="#5E9ADF" offset="100%"></stop>
        </linearGradient>
        <linearGradient x1="50%" y1="0%" x2="50%" y2="100%" id="linearGradient-8">
            <stop stop-color="#FBD249" offset="0%"></stop>
            <stop stop-color="#F5A623" offset="100%"></stop>
        </linearGradient>
        <linearGradient x1="110.956174%" y1="50%" x2="37.5940836%" y2="50%" id="linearGradient-9">
            <stop stop-color="#3F6E93" offset="0%"></stop>
            <stop stop-color="#5E9ADF" offset="100%"></stop>
        </linearGradient>
        <path d="M11.1779902,11 L0.382044277,11 C3.27211902,6.91605505 6.87076767,3.24938838 11.1779902,0 L11.1779902,11 Z M21.9755378,11 L11.1795918,11 L11.1795918,0 C15.4868144,3.24938838 19.085463,6.91605505 21.9755378,11 Z" id="path-10"></path>
        <linearGradient x1="-1.11022302e-14%" y1="50%" x2="100%" y2="50%" id="linearGradient-12">
            <stop stop-color="#000000" stop-opacity="0" offset="0%"></stop>
            <stop stop-color="#000000" offset="100%"></stop>
        </linearGradient>
        <ellipse id="path-13" cx="11.5" cy="11" rx="11.5" ry="11"></ellipse>
        <filter x="-4.3%" y="-4.5%" width="113.0%" height="118.2%" filterUnits="objectBoundingBox" id="filter-14">
            <feOffset dx="1" dy="2" in="SourceAlpha" result="shadowOffsetOuter1"></feOffset>
            <feColorMatrix values="0 0 0 0 0   0 0 0 0 0   0 0 0 0 0  0 0 0 0.117753623 0" type="matrix" in="shadowOffsetOuter1"></feColorMatrix>
        </filter>
        <linearGradient x1="50%" y1="2.64857298%" x2="50%" y2="98.2162211%" id="linearGradient-15">
            <stop stop-color="#FBE0F3" stop-opacity="0" offset="0%"></stop>
            <stop stop-color="#EFCECE" offset="100%"></stop>
        </linearGradient>
    </defs>
    <g id="Page-1" stroke="none" stroke-width="1" fill="none" fill-rule="evenodd">
        <g id="Yapp-life-inscripción-1" transform="translate(-76.000000, -137.000000)">
            <g id="Group-2" transform="translate(76.000000, 137.000000)">
                <path d="M140,25 C135.581722,25 132,21.418278 132,17 C132,12.581722 135.581722,9 140,9 C140.834825,9 141.639783,9.12787226 142.396357,9.36509872 C143.787432,3.97878829 148.679068,0 154.5,0 C160.616839,0 165.7075,4.39359379 166.788312,10.1971124 C168.011548,9.43819451 169.454601,9 171,9 C175.418278,9 179,12.581722 179,17 C179,21.0796177 175.946312,24.4460082 172,24.9381062 L172,25 L140,25 Z" id="cloud" fill="url(#linearGradient-1)" fill-rule="nonzero" transform="translate(155.500000, 12.500000) scale(-1, 1) translate(-155.500000, -12.500000) "></path>
                <path d="M0.0829584402,31 C0.0283987962,30.6747915 0,30.3407122 0,30 C0,26.6862915 2.6862915,24 6,24 C6.50058288,24 6.98684784,24.0613023 7.45169724,24.1768091 C8.63590415,20.5891821 12.0155841,18 16,18 C20.0960973,18 23.5530826,20.7363636 24.6426714,24.4808062 C25.3663262,24.1713222 26.1631559,24 27,24 C30.3137085,24 33,26.6862915 33,30 C33,32.9729963 30.8377133,35.4409635 28,35.9170416 L28,36 L5,36 C2.23857625,36 3.38176876e-16,33.7614237 0,31 L0.0829584402,31 Z" id="cloud" fill="url(#linearGradient-2)" fill-rule="nonzero" transform="translate(16.500000, 27.000000) scale(-1, 1) translate(-16.500000, -27.000000) "></path>
                <path d="M131,58 C128.790861,58 127,56.209139 127,54 C127,51.790861 128.790861,50 131,50 C131.452467,50 131.887388,50.0751259 132.292969,50.2135847 C133.116683,47.7723078 135.584122,46 138.5,46 C141.582345,46 144.163585,47.9804449 144.831814,50.638035 C145.456499,50.2343343 146.200884,50 147,50 C149.209139,50 151,51.790861 151,54 C151,56.209139 149.209139,58 147,58 L131,58 Z" id="cloud" fill="url(#linearGradient-3)" fill-rule="nonzero" transform="translate(139.000000, 52.000000) scale(-1, 1) translate(-139.000000, -52.000000) "></path>
                <g id="rocket" transform="translate(58.000000, 11.000000)">
                    <g id="bottom" transform="translate(16.000000, 58.000000)" fill-rule="nonzero">
                        <rect fill="url(#linearGradient-4)" x="0" y="0" width="20" height="11" rx="5.5"></rect>
                        <rect id="shadow" fill="url(#linearGradient-5)" transform="translate(10.000000, 4.620000) scale(-1, -1) translate(-10.000000, -4.620000) " x="0" y="3.52" width="20" height="2.2"></rect>
                    </g>
                    <g id="wings" transform="translate(0.000000, 54.000000)" fill="url(#linearGradient-6)" fill-rule="nonzero">
                        <path d="M44.6430264,6.05164641 L50.1879964,15.7647868 C51.1463282,17.4434994 50.5623441,19.5812463 48.8836315,20.5395781 C48.3550946,20.8413056 47.7570155,21 47.1484183,21 L41.6034483,21 C39.6704517,21 38.1034483,19.4329966 38.1034483,17.5 L38.1034483,7.78685961 C38.1034483,5.85386298 39.6704517,4.28685961 41.6034483,4.28685961 C42.8599714,4.28685961 44.0200734,4.96041782 44.6430264,6.05164641 Z" id="wing-right"></path>
                        <path d="M6.53957812,6.05164641 L12.0845481,15.7647868 C13.0428799,17.4434994 12.4588958,19.5812463 10.7801832,20.5395781 C10.2516464,20.8413056 9.65356725,21 9.04496999,21 L3.5,21 C1.56700338,21 2.33293627e-14,19.4329966 2.30926389e-14,17.5 L2.44249065e-14,7.78685961 C2.41881827e-14,5.85386298 1.56700338,4.28685961 3.5,4.28685961 C4.75652308,4.28685961 5.91662514,4.96041782 6.53957812,6.05164641 Z" id="wing-left" transform="translate(6.825792, 10.500000) scale(-1, 1) translate(-6.825792, -10.500000) "></path>
                    </g>
                    <path d="M26.4991976,0 L26.4991976,62 L14.0920172,61.7708802 C8.66552584,41.7922324 7.57623632,27.8766149 10.8241486,20.0240277 C14.0720609,12.1714404 19.2970773,5.49676456 26.4991976,0 Z M26.5008024,0 C33.7029227,5.49676456 38.9279391,12.1714404 42.1758514,20.0240277 C45.4237637,27.8766149 44.3344742,41.7922324 38.9079828,61.7708802 L26.5008024,62 L26.5008024,0 Z" id="body" fill="url(#linearGradient-7)" fill-rule="nonzero"></path>
                    <rect id="wing-middle" fill="url(#linearGradient-8)" fill-rule="nonzero" x="24" y="54" width="3" height="21" rx="1.5"></rect>
                    <g id="head" transform="translate(15.000000, 0.000000)">
                        <mask id="mask-11" fill="white">
                            <use xlink:href="#path-10"></use>
                        </mask>
                        <use id="tip" fill="url(#linearGradient-9)" fill-rule="nonzero" xlink:href="#path-10"></use>
                        <rect id="line" fill="url(#linearGradient-12)" fill-rule="nonzero" opacity="0.218331473" mask="url(#mask-11)" x="-1.79591837" y="9.68" width="28.7346939" height="3.08"></rect>
                    </g>
                    <g id="window" transform="translate(15.000000, 17.000000)" fill-rule="nonzero">
                        <g id="window-base">
                            <use fill="black" fill-opacity="1" filter="url(#filter-14)" xlink:href="#path-13"></use>
                            <use fill="#97C9F1" xlink:href="#path-13"></use>
                        </g>
                        <g id="screws" transform="translate(1.840000, 1.760000)" fill="#FAF9F9">
                            <ellipse id="Oval" cx="9.66" cy="0.44" rx="1" ry="1"></ellipse>
                            <ellipse id="Oval" cx="2.76" cy="3.52" rx="1" ry="1"></ellipse>
                            <ellipse id="Oval" cx="16.56" cy="3.52" rx="1" ry="1"></ellipse>
                            <ellipse id="Oval" cx="15.64" cy="15.4" rx="1" ry="1"></ellipse>
                            <ellipse id="Oval" cx="3.22" cy="14.96" rx="1" ry="1"></ellipse>
                            <ellipse id="Oval" cx="9.66" cy="18.04" rx="1" ry="1"></ellipse>
                            <ellipse id="Oval" cx="18.86" cy="9.24" rx="1" ry="1"></ellipse>
                            <ellipse id="Oval" cx="0.46" cy="9.24" rx="1" ry="1"></ellipse>
                        </g>
                        <g id="glass" transform="translate(4.600000, 4.400000)">
                            <ellipse id="Oval" fill="#E5EEF5" cx="6.9" cy="6.6" rx="6.9" ry="6.6"></ellipse>
                            <path d="M6.9,13.2 C10.7107648,13.2 13.8,10.2450793 13.8,6.6 C13.8,5.0371013 13.232065,3.60108361 12.2828325,2.47046991 C11.0182122,0.964203404 0.533390528,9.5100797 1.4303006,10.623889 C2.69188898,12.1905665 4.67270327,13.2 6.9,13.2 Z" id="Oval" fill="#D4E1EC"></path>
                            <ellipse id="Oval" fill="#FFFFFF" cx="9.66" cy="3.52" rx="1.84" ry="1.76"></ellipse>
                        </g>
                    </g>
                </g>
                <path d="M92,117.847499 C94.9206169,113.128185 100.033707,110 105.853191,110 C113.464297,110 119.867105,115.350802 121.737077,122.613823 C122.611809,122.370036 123.531648,122.24 124.480851,122.24 C130.290417,122.24 135,127.111142 135,133.12 C135,133.271858 134.996992,133.422989 134.991034,133.573333 L135,133.573333 C135,139.331822 130.331822,144 124.573333,144 L83.7191489,144 L42.4266667,144 C36.6681777,144 32,139.331822 32,133.573333 L32.0089656,133.573333 C32.003008,133.422989 32,133.271858 32,133.12 C32,127.111142 36.7095834,122.24 42.5191489,122.24 C43.4683522,122.24 44.3881914,122.370036 45.2629228,122.613823 C47.1328949,115.350802 53.5357031,110 61.1468085,110 C66.9662931,110 72.0793831,113.128185 75,117.847499 L75,80 L92,80 L92,117.847499 Z" id="smoke" fill="url(#linearGradient-15)" fill-rule="nonzero"></path>
            </g>
        </g>
    </g>
</svg>